<svg width="180" height="184" viewBox="0 0 180 184" fill="none" xmlns="http://www.w3.org/2000/svg">
<ellipse cx="90" cy="92" rx="90" ry="92" fill="url(#paint0_linear)" fill-opacity="0.6"/>
<path d="M45.3955 130.896C42.3193 130.896 39.6387 130.574 37.3535 129.93V118.592C39.6973 119.178 41.8359 119.471 43.7695 119.471C46.7578 119.471 48.8965 118.533 50.1855 116.658C51.4746 114.812 52.1191 111.912 52.1191 107.957V47.752H65.7422V107.869C65.7422 115.369 64.0283 121.082 60.6006 125.008C57.1729 128.934 52.1045 130.896 45.3955 130.896ZM121.245 112L116.587 96.707H93.1641L88.5059 112H73.8281L96.5039 47.4883H113.159L135.923 112H121.245ZM113.335 85.2812C109.028 71.4238 106.597 63.5869 106.04 61.7705C105.513 59.9541 105.132 58.5186 104.897 57.4639C103.931 61.2139 101.162 70.4863 96.5918 85.2812H113.335Z" fill="white"/>
<defs>
<linearGradient id="paint0_linear" x1="90" y1="0" x2="90" y2="184" gradientUnits="userSpaceOnUse">
<stop stop-color="#0668C3"/>
<stop offset="1" stop-color="#06C374"/>
</linearGradient>
</defs>
</svg>
